<?xml version="1.0" encoding="UTF-8" standalone="no"?>
<!-- Creator: CorelDRAW X7 -->

<svg xmlns:dc="http://purl.org/dc/elements/1.1/" xmlns:cc="http://creativecommons.org/ns#" xmlns:rdf="http://www.w3.org/1999/02/22-rdf-syntax-ns#" xmlns:svg="http://www.w3.org/2000/svg" xmlns="http://www.w3.org/2000/svg" xmlns:sodipodi="http://sodipodi.sourceforge.net/DTD/sodipodi-0.dtd" xmlns:inkscape="http://www.inkscape.org/namespaces/inkscape" xml:space="preserve" width="50" height="50" version="1.1" style="clip-rule:evenodd;fill-rule:evenodd;image-rendering:optimizeQuality;shape-rendering:geometricPrecision;text-rendering:geometricPrecision" viewBox="0 0 1411.111 1411.111" id="svg2" inkscape:version="0.91 r13725" sodipodi:docname="icono.svg"><metadata id="metadata80"><rdf:RDF><cc:Work rdf:about=""><dc:format>image/svg+xml</dc:format><dc:type rdf:resource="http://purl.org/dc/dcmitype/StillImage" /><dc:title></dc:title></cc:Work></rdf:RDF></metadata><sodipodi:namedview pagecolor="#ffffff" bordercolor="#666666" borderopacity="1" objecttolerance="10" gridtolerance="10" guidetolerance="10" inkscape:pageopacity="0" inkscape:pageshadow="2" inkscape:window-width="640" inkscape:window-height="480" id="namedview78" showgrid="false" units="px" inkscape:zoom="5.311226" inkscape:cx="31.901879" inkscape:cy="66.480262" inkscape:current-layer="svg2" /><defs id="defs4"><style type="text/css" id="style6"><![CDATA[
    .str0 {stroke:#FEFEFE;stroke-width:17.64}
    .fil0 {fill:#FEFEFE}
    .fil1 {fill:#0052A4}
   ]]></style></defs><ellipse style="fill:#61c6e6" cy="498.93066" cx="864.14142" id="circle12" transform="matrix(0.96593134,0.25879847,-0.25884107,0.96591992,0,0)" class="fil1" inkscape:export-filename="/var/www/html/ie/img/web/icono.png" inkscape:export-xdpi="1841.9144" inkscape:export-ydpi="1841.9144" rx="42.178982" ry="42.175755" /><ellipse style="fill:#61c6e6" cy="282.03168" cx="864.14117" id="circle14" transform="matrix(0.96593155,0.2587977,-0.25884074,0.96592001,0,0)" class="fil1" rx="46.396881" ry="46.393257" inkscape:export-filename="/var/www/html/ie/img/web/icono.png" inkscape:export-xdpi="1841.9144" inkscape:export-ydpi="1841.9144" /><ellipse style="fill:#61c6e6" cy="-475.11835" cx="963.8045" id="circle16" transform="matrix(0.50003335,0.86600615,-0.8660448,0.4999664,0,0)" class="fil1" rx="46.394764" ry="46.396889" inkscape:export-filename="/var/www/html/ie/img/web/icono.png" inkscape:export-xdpi="1841.9144" inkscape:export-ydpi="1841.9144" /><ellipse style="fill:#61c6e6" cy="-1081.0475" cx="498.93454" id="circle18" transform="matrix(-0.25884131,0.96591986,-0.96593162,-0.25879742,0,0)" class="fil1" rx="46.394165" ry="46.397594" inkscape:export-filename="/var/www/html/ie/img/web/icono.png" inkscape:export-xdpi="1841.9144" inkscape:export-ydpi="1841.9144" /><ellipse style="fill:#61c6e6" cy="-1180.7047" cx="-258.21213" id="circle20" transform="matrix(-0.8660448,0.4999664,-0.50003335,-0.86600615,0,0)" class="fil1" rx="46.396889" ry="46.394764" inkscape:export-filename="/var/www/html/ie/img/web/icono.png" inkscape:export-xdpi="1841.9144" inkscape:export-ydpi="1841.9144" /><ellipse style="fill:#61c6e6" cy="-715.82111" cx="-864.13843" id="circle22" transform="matrix(-0.96593155,-0.2587977,0.25884074,-0.96592001,0,0)" class="fil1" rx="46.396881" ry="46.393257" inkscape:export-filename="/var/www/html/ie/img/web/icono.png" inkscape:export-xdpi="1841.9144" inkscape:export-ydpi="1841.9144" /><ellipse style="fill:#61c6e6" cy="41.303253" cx="-963.80786" id="circle24" transform="matrix(-0.50003335,-0.86600615,0.8660448,-0.4999664,0,0)" class="fil1" rx="46.394764" ry="46.396889" inkscape:export-filename="/var/www/html/ie/img/web/icono.png" inkscape:export-xdpi="1841.9144" inkscape:export-ydpi="1841.9144" /><ellipse style="fill:#61c6e6" cy="647.2254" cx="-498.93134" id="circle26" transform="matrix(0.25884131,-0.96591986,0.96593162,0.25879742,0,0)" class="fil1" rx="46.394165" ry="46.397594" inkscape:export-filename="/var/www/html/ie/img/web/icono.png" inkscape:export-xdpi="1841.9144" inkscape:export-ydpi="1841.9144" /><ellipse style="fill:#61c6e6" cy="746.9082" cx="258.20947" id="circle28" transform="matrix(0.8660448,-0.4999664,0.50003335,0.86600615,0,0)" class="fil1" rx="46.396889" ry="46.394764" inkscape:export-filename="/var/www/html/ie/img/web/icono.png" inkscape:export-xdpi="1841.9144" inkscape:export-ydpi="1841.9144" /><ellipse style="fill:#61c6e6" cy="65.14296" cx="864.14386" id="circle30" transform="matrix(0.96593173,0.25879702,-0.25884004,0.9659202,0,0)" class="fil1" rx="50.614788" ry="50.610844" inkscape:export-filename="/var/www/html/ie/img/web/icono.png" inkscape:export-xdpi="1841.9144" inkscape:export-ydpi="1841.9144" /><circle style="fill:#61c6e6" cy="-433.7507" cx="997.8147" id="circle32" r="50.604225" transform="matrix(0.70713797,0.70707559,-0.70713797,0.70707559,0,0)" class="fil1" inkscape:export-filename="/var/www/html/ie/img/web/icono.png" inkscape:export-xdpi="1841.9144" inkscape:export-ydpi="1841.9144" /><ellipse style="fill:#61c6e6" cy="-932.70471" cx="864.12262" id="circle34" transform="matrix(0.2588412,0.96591989,-0.96593131,0.2587986,0,0)" class="fil1" inkscape:export-filename="/var/www/html/ie/img/web/icono.png" inkscape:export-xdpi="1841.9144" inkscape:export-ydpi="1841.9144" rx="50.602245" ry="50.606106" /><ellipse style="fill:#61c6e6" cy="-1297.9633" cx="498.93387" id="circle36" transform="matrix(-0.25884055,0.96592006,-0.96593148,-0.25879795,0,0)" class="fil1" inkscape:export-filename="/var/www/html/ie/img/web/icono.png" inkscape:export-xdpi="1841.9144" inkscape:export-ydpi="1841.9144" rx="50.611744" ry="50.615612" /><circle style="fill:#61c6e6" cy="-1431.6154" cx="0.049800064" id="circle38" r="50.604225" transform="matrix(-0.70713797,0.70707559,-0.70713797,-0.70707559,0,0)" class="fil1" inkscape:export-filename="/var/www/html/ie/img/web/icono.png" inkscape:export-xdpi="1841.9144" inkscape:export-ydpi="1841.9144" /><ellipse style="fill:#61c6e6" cy="-1297.9142" cx="-498.88492" id="circle40" transform="matrix(-0.96593131,0.2587986,-0.2588412,-0.96591989,0,0)" class="fil1" inkscape:export-filename="/var/www/html/ie/img/web/icono.png" inkscape:export-xdpi="1841.9144" inkscape:export-ydpi="1841.9144" rx="50.606106" ry="50.602245" /><ellipse style="fill:#61c6e6" cy="-932.72131" cx="-864.138" id="circle42" transform="matrix(-0.96593173,-0.25879702,0.25884004,-0.9659202,0,0)" class="fil1" rx="50.614788" ry="50.610844" inkscape:export-filename="/var/www/html/ie/img/web/icono.png" inkscape:export-xdpi="1841.9144" inkscape:export-ydpi="1841.9144" /><circle style="fill:#61c6e6" cy="-433.85016" cx="-997.8147" id="circle44" r="50.604225" transform="matrix(-0.70713797,-0.70707559,0.70713797,-0.70707559,0,0)" class="fil1" inkscape:export-filename="/var/www/html/ie/img/web/icono.png" inkscape:export-xdpi="1841.9144" inkscape:export-ydpi="1841.9144" /><ellipse style="fill:#61c6e6" cy="65.06044" cx="-864.12756" id="circle46" transform="matrix(-0.2588412,-0.96591989,0.96593131,-0.2587986,0,0)" class="fil1" inkscape:export-filename="/var/www/html/ie/img/web/icono.png" inkscape:export-xdpi="1841.9144" inkscape:export-ydpi="1841.9144" rx="50.602245" ry="50.606106" /><ellipse style="fill:#61c6e6" cy="430.31906" cx="-498.92828" id="circle48" transform="matrix(0.25884055,-0.96592006,0.96593148,0.25879795,0,0)" class="fil1" inkscape:export-filename="/var/www/html/ie/img/web/icono.png" inkscape:export-xdpi="1841.9144" inkscape:export-ydpi="1841.9144" rx="50.611744" ry="50.615612" /><circle style="fill:#61c6e6" cy="564.01398" cx="-0.049800064" id="circle50" r="50.604225" transform="matrix(0.70713797,-0.70707559,0.70713797,0.70707559,0,0)" class="fil1" inkscape:export-filename="/var/www/html/ie/img/web/icono.png" inkscape:export-xdpi="1841.9144" inkscape:export-ydpi="1841.9144" /><ellipse style="fill:#61c6e6" cy="430.33612" cx="498.88004" id="circle52" transform="matrix(0.96593131,-0.2587986,0.2588412,0.96591989,0,0)" class="fil1" inkscape:export-filename="/var/www/html/ie/img/web/icono.png" inkscape:export-xdpi="1841.9144" inkscape:export-ydpi="1841.9144" rx="50.606106" ry="50.602245" /><ellipse style="fill:#61c6e6" cy="-392.39822" cx="963.82758" id="circle54" transform="matrix(0.86604454,0.49996686,-0.50003301,0.86600634,0,0)" class="fil1" inkscape:export-filename="/var/www/html/ie/img/web/icono.png" inkscape:export-xdpi="1841.9144" inkscape:export-ydpi="1841.9144" rx="54.818134" ry="54.81572" /><ellipse style="fill:#61c6e6" cy="-908.93311" cx="963.80237" id="circle56" transform="matrix(0.50003359,0.86600601,-0.86604421,0.49996743,0,0)" class="fil1" inkscape:export-filename="/var/www/html/ie/img/web/icono.png" inkscape:export-xdpi="1841.9144" inkscape:export-ydpi="1841.9144" rx="54.829357" ry="54.831768" /><ellipse style="fill:#61c6e6" cy="-1356.2915" cx="705.5658" id="circle58" transform="matrix(0,1,-1,0,0,0)" class="fil1" inkscape:export-filename="/var/www/html/ie/img/web/icono.png" inkscape:export-xdpi="1841.9144" inkscape:export-ydpi="1841.9144" rx="54.814507" ry="54.819336" /><ellipse style="fill:#61c6e6" cy="-1614.5459" cx="258.29999" id="circle60" transform="matrix(-0.50003301,0.86600634,-0.86604454,-0.49996686,0,0)" class="fil1" inkscape:export-filename="/var/www/html/ie/img/web/icono.png" inkscape:export-xdpi="1841.9144" inkscape:export-ydpi="1841.9144" rx="54.81572" ry="54.818134" /><ellipse style="fill:#61c6e6" cy="-1614.5011" cx="-258.21454" id="circle62" transform="matrix(-0.86604421,0.49996743,-0.50003359,-0.86600601,0,0)" class="fil1" inkscape:export-filename="/var/www/html/ie/img/web/icono.png" inkscape:export-xdpi="1841.9144" inkscape:export-ydpi="1841.9144" rx="54.831768" ry="54.829357" /><ellipse style="fill:#61c6e6" id="circle64" cy="1355.8534" cx="705.39362" class="fil1" inkscape:export-filename="/var/www/html/ie/img/web/icono.png" inkscape:export-xdpi="1841.9144" inkscape:export-ydpi="1841.9144" rx="55.262299" ry="55.257423" /><ellipse style="fill:#61c6e6" cy="-908.9895" cx="-963.81903" id="circle66" transform="matrix(-0.86604454,-0.49996686,0.50003301,-0.86600634,0,0)" class="fil1" inkscape:export-filename="/var/www/html/ie/img/web/icono.png" inkscape:export-xdpi="1841.9144" inkscape:export-ydpi="1841.9144" rx="54.818134" ry="54.81572" /><ellipse style="fill:#61c6e6" cy="-392.51495" cx="-963.80884" id="circle68" transform="matrix(-0.50003359,-0.86600601,0.86604421,-0.49996743,0,0)" class="fil1" inkscape:export-filename="/var/www/html/ie/img/web/icono.png" inkscape:export-xdpi="1841.9144" inkscape:export-ydpi="1841.9144" rx="54.829357" ry="54.831768" /><ellipse style="fill:#61c6e6" cy="54.819336" cx="-705.5658" id="circle70" transform="matrix(0,-1,1,0,0,0)" class="fil1" inkscape:export-filename="/var/www/html/ie/img/web/icono.png" inkscape:export-xdpi="1841.9144" inkscape:export-ydpi="1841.9144" rx="54.814507" ry="54.819336" /><ellipse style="fill:#61c6e6" cy="313.09799" cx="-258.29288" id="circle72" transform="matrix(0.50003301,-0.86600634,0.86604454,0.49996686,0,0)" class="fil1" inkscape:export-filename="/var/www/html/ie/img/web/icono.png" inkscape:export-xdpi="1841.9144" inkscape:export-ydpi="1841.9144" rx="54.81572" ry="54.818134" /><ellipse style="fill:#61c6e6" cy="313.11301" cx="258.20673" id="circle74" transform="matrix(0.86604421,-0.49996743,0.50003359,0.86600601,0,0)" class="fil1" inkscape:export-filename="/var/www/html/ie/img/web/icono.png" inkscape:export-xdpi="1841.9144" inkscape:export-ydpi="1841.9144" rx="54.831768" ry="54.829357" /><ellipse style="fill:#61c6e6" id="circle76" cy="55.257339" cx="705.39362" class="fil1" inkscape:export-filename="/var/www/html/ie/img/web/icono.png" inkscape:export-xdpi="1841.9144" inkscape:export-ydpi="1841.9144" rx="55.262299" ry="55.257423" /></svg>