<?xml version="1.0" encoding="UTF-8" standalone="no"?>
<!-- Creator: CorelDRAW X7 -->

<svg xmlns:dc="http://purl.org/dc/elements/1.1/" xmlns:cc="http://creativecommons.org/ns#" xmlns:rdf="http://www.w3.org/1999/02/22-rdf-syntax-ns#" xmlns:svg="http://www.w3.org/2000/svg" xmlns="http://www.w3.org/2000/svg" xmlns:sodipodi="http://sodipodi.sourceforge.net/DTD/sodipodi-0.dtd" xmlns:inkscape="http://www.inkscape.org/namespaces/inkscape" xml:space="preserve" width="28.222223mm" height="28.222223mm" version="1.1" style="clip-rule:evenodd;fill-rule:evenodd;image-rendering:optimizeQuality;shape-rendering:geometricPrecision;text-rendering:geometricPrecision" viewBox="0 0 2822.2223 2822.2223" id="svg2" inkscape:version="0.91 r13725" sodipodi:docname="1.svg"><metadata id="metadata46"><rdf:RDF><cc:Work rdf:about=""><dc:format>image/svg+xml</dc:format><dc:type rdf:resource="http://purl.org/dc/dcmitype/StillImage" /><dc:title></dc:title></cc:Work></rdf:RDF></metadata><sodipodi:namedview pagecolor="#ffffff" bordercolor="#666666" borderopacity="1" objecttolerance="10" gridtolerance="10" guidetolerance="10" inkscape:pageopacity="0" inkscape:pageshadow="2" inkscape:window-width="640" inkscape:window-height="480" id="namedview44" showgrid="false" fit-margin-top="0" fit-margin-left="0" fit-margin-right="0" fit-margin-bottom="0" inkscape:zoom="5.4899998" inkscape:cx="50.000002" inkscape:cy="50.000002" inkscape:current-layer="svg2" /><defs id="defs4"><style type="text/css" id="style6"><![CDATA[
    .fil3 {fill:#D2D3D5}
    .fil9 {fill:#4B4B4D}
    .fil7 {fill:#EC268F}
    .fil0 {fill:#C8C5E2}
    .fil2 {fill:#00A859}
    .fil6 {fill:#004F59}
    .fil4 {fill:#046C77}
    .fil5 {fill:#0D8D9C}
    .fil1 {fill:#556080}
    .fil8 {fill:#556080}
   ]]></style></defs><polygon style="fill:#c8c5e2" id="polygon10" points="9532,7890 9532,1101 586,1101 586,7890 " class="fil0" transform="matrix(0.28365172,0,0,0.28866572,-24.6777,-29.443903)" /><polygon style="fill:#556080" id="polygon12" points="9861,102 257,102 257,1101 586,1101 9532,1101 9861,1101 " class="fil1" transform="matrix(0.28365172,0,0,0.28866572,-24.6777,-29.443903)" /><path style="fill:#556080" d="M 96.609375 79.603516 C 96.007906 79.619178 95.417704 79.658203 94.927734 79.658203 L 5.015625 79.658203 L 1.8300781 79.658203 C 0.61394949 79.658203 0.48243119 80.159583 0 80.90625 L 0 81.898438 L 0.12109375 82.154297 C 1.0960068 83.52489 2.4426586 83.023438 5.015625 83.023438 L 48.263672 83.023438 L 48.263672 86.644531 C 43.238346 87.759418 41.398312 95.113245 45.810547 98.611328 C 47.157336 99.603475 48.745888 100.10516 50.957031 99.982422 C 59.289021 97.987902 57.571038 87.882159 51.691406 86.644531 L 51.691406 83.023438 L 97.751953 83.146484 C 98.978132 83.146484 99.711907 82.777767 99.953125 81.775391 C 100.32249 79.7195 98.413781 79.556529 96.609375 79.603516 z M 50.009766 89.884766 C 53.691454 89.687255 54.728479 95.55424 50.705078 96.484375 C 46.54411 97.486752 44.826046 91.001913 49.238281 90.009766 C 49.506508 89.939446 49.76432 89.897933 50.009766 89.884766 z " transform="matrix(28.222227,0,0,28.222227,-1.0765925e-4,-1.0765925e-4)" id="path14" /><path style="fill:#00a859" inkscape:connector-curvature="0" id="path16" d="m 2178.6173,947.21339 -510.5641,658.61751 c -19.1926,-8.6552 -369.1739,-296.4143 -425.1498,-341.6699 -19.6153,-12.2438 -37.4646,-39.8552 -79.5223,-27.6268 -20.5712,10.0019 -363.04191,464.1833 -385.02669,492.5433 l -141.99578,183.1717 c -12.70879,16.0497 -41.71086,45.5389 -38.71805,70.958 0.3468,33.3106 28.3172,55.7889 60.21861,48.3945 24.55505,-6.5295 45.65959,-42.3657 54.80693,-58.2991 50.43566,-65.061 447.29088,-581.13 482.82948,-618.3624 36.7482,36.3013 252.8493,206.7211 297.2377,242.1228 51.5696,38.1946 99.6127,76.8044 148.1138,119.3016 36.6195,32.6781 66.3379,6.7429 84.7965,-21.2019 18.4584,-27.9447 41.2882,-49.1275 60.0407,-77.1069 12.3796,-16.314 456.5669,-593.4404 473.2244,-606.3165 7.7109,65.4916 15.8443,134.5717 24.0129,203.9508 11.5839,98.3869 95.2414,70.0424 100.1284,17.9241 4.0246,-26.5485 -25.2399,-244.73767 -35.632,-302.6369 -4.2955,-36.4838 2.4103,-70.6246 -21.6114,-89.92946 -23.5992,-15.71633 -51.2227,-4.88414 -87.0729,-0.66319 -57.7592,2.85891 -276.8091,25.01124 -300.9064,35.42826 -24.5551,6.52942 -43.0135,34.47416 -32.0881,66.53912 10.4678,28.17734 36.6196,32.67807 68.6495,28.90691 68.1741,-8.02671 136.0545,-16.01884 204.2286,-24.04555 z" class="fil2" /><g id="g5936" transform="matrix(1.2393243,0,0,1.2393243,-62.250323,-111.43364)"><path class="fil4" d="M 527.87585,613.70332 658.07199,995.3194 c 7.6586,20.2066 15.31719,42.1452 21.27388,63.7951 l 20.13927,57.7332 c 0,4.6186 0,1.732 0,3.1753 l 0,1.4433 c 1.41826,1.732 2.83652,3.1753 4.53843,1.732 1.41826,-9.526 38.29298,-116.9096 42.83141,-127.8789 15.31719,-43.58852 28.93247,-84.00172 42.83141,-127.59025 l 87.36473,-254.02583 -4.82208,-1.44333 c -5.95669,2.88666 -312.30055,2.88666 -344.35319,1.44333 z" id="path20" inkscape:connector-curvature="0" style="fill:#046c77" /><path class="fil5" d="m 704.02357,1123.1983 c 3.12017,-1.732 0,1.4433 3.12017,-3.1753 L 867.69061,934.6996 c 15.31719,-20.2066 44.53332,-51.3825 61.26877,-71.5891 L 948.815,837.99659 c 18.43736,-23.38193 61.2688,-68.41378 81.1244,-94.97103 4.5384,-4.61865 9.3605,-10.96929 13.8989,-15.58795 l 33.4709,-38.96987 c 4.8221,-4.61865 4.8221,-4.61865 7.6586,-7.79397 l 39.9949,-48.20718 c 3.1202,-3.17532 12.197,-14.14462 15.3172,-17.31994 1.4183,-4.61865 0,-1.44333 -6.2403,-1.44333 l -256.98848,0 -87.36473,254.02583 c -13.89894,43.58853 -27.51422,84.00173 -42.83141,127.59025 -4.53843,10.9693 -41.41315,118.3529 -42.83141,127.8789 z" id="path22" inkscape:connector-curvature="0" style="fill:#0d8d9c" /><path class="fil6" d="m 699.48514,1120.023 c 0,-1.4433 0,1.4433 0,-3.1753 l -20.13927,-57.7332 c -5.95669,-21.6499 -13.61528,-43.5885 -21.27388,-63.7951 l -130.19614,-381.61608 -5.95669,0 -255.85385,0 47.65349,54.55782 c 1.41826,3.17533 2.83652,6.35065 5.95669,9.23731 l 61.26877,70.14577 c 1.41826,4.61865 4.53843,4.61865 6.24034,9.52596 l 41.1295,46.47518 c 3.12017,3.17533 3.12017,4.90732 6.24033,7.79398 4.53843,4.90732 4.53843,4.90732 7.6586,7.79397 3.12017,4.90732 3.12017,4.90732 5.95669,7.79398 l 203.66193,236.99451 c 1.70191,2.8867 4.53843,4.6187 6.24034,9.2373 4.53843,4.6187 9.07686,9.2374 13.61528,15.588 l 27.79787,31.1759 z" id="path24" inkscape:connector-curvature="0" style="fill:#004f59" /><path class="fil5" d="m 521.91916,613.70332 5.95669,0 c 32.05264,1.44333 338.3965,1.44333 344.35319,-1.44333 -2.83652,-7.79397 -13.61528,-28.00057 -19.85562,-35.79455 -5.95669,-14.14462 -12.19703,-25.11391 -18.43736,-37.52654 -5.95669,-12.41263 -36.59108,-65.52712 -38.29299,-73.32109 l -195.71968,0 -78.00423,148.08551 z" id="path26" inkscape:connector-curvature="0" style="fill:#0d8d9c" /><path class="fil6" d="m 872.22904,612.25999 4.82208,1.44333 256.98848,0 c -12.197,-24.82525 -73.4658,-119.79627 -90.2013,-148.08551 l -248.19523,0 c 1.70191,7.79397 32.3363,60.90846 38.29299,73.32109 6.24033,12.41263 12.48067,23.38192 18.43736,37.52654 6.24034,7.79398 17.0191,28.00058 19.85562,35.79455 z" id="path28" inkscape:connector-curvature="0" style="fill:#004f59" /><path class="fil4" d="m 266.06531,613.70332 255.85385,0 78.00423,-148.08551 -235.71458,0 c -6.24034,3.17532 -21.55753,29.73257 -26.09596,36.08321 -9.07686,12.41263 -16.73545,24.82525 -26.09596,37.23788 -9.07685,12.41263 -16.73545,24.82525 -26.09596,37.52654 -5.95668,7.79398 -22.69213,29.44391 -25.8123,37.23788 l 5.95668,0 z" id="path30" inkscape:connector-curvature="0" style="fill:#046c77" /></g><path style="fill:#4b4b4d" d="m 1140.7921,687.10867 c -26.0435,1.43263 -40.4562,9.67551 -60.8687,22.56931 6.3349,7.16321 79.5394,36.54638 96.4326,46.5749 l 4.5822,57.65431 -46.5065,33.3069 c -16.5412,-5.7307 -87.6141,-44.43856 -97.1165,-44.79671 3.5194,24.35491 6.7321,40.47341 22.5694,61.96301 12.6698,16.8336 28.1202,27.2343 42.1978,32.9649 15.4853,6.0887 31.7006,11.0885 54.5767,7.8651 18.3008,-1.4326 46.1087,-11.7596 57.7227,-23.9372 5.983,-2.1489 3.1531,-2.5593 7.7283,-0.4103 1.7597,0.7163 3.8584,2.9084 5.2662,3.6247 4.5752,1.0745 7.7268,2.5215 10.1904,5.7449 5.2791,0.7163 39.0788,16.4411 42.9501,20.3809 8.4466,1.0744 171.3642,81.9928 181.9224,85.21615 8.4465,72.34856 110.2101,85.61136 140.4769,17.91866 12.3179,-24.71301 10.5585,-63.37561 -16.8928,-88.08861 -11.438,-10.9687 -30.0315,-20.3711 -50.268,-20.6544 -12.1419,-0.17 -24.9265,2.9525 -37.0684,11.0111 -8.7985,-6.0887 -174.9136,-80.9904 -180.8965,-86.7209 -5.6311,-0.7163 -39.0004,-16.441 -43.2237,-20.3808 l -21.8854,-9.30127 c 1.7597,-65.54349 -51.7074,-114.65363 -111.8892,-112.50465 z m 397.3569,238.55092 c 19.0048,16.1171 3.5258,17.5443 38.3678,18.2606 0.7039,5.0142 -1.0658,19.3297 0.342,22.9113 1.0558,3.5816 11.2732,13.2787 14.0887,17.5767 -20.0606,21.13131 -14.4776,7.8917 -17.6451,39.05161 -5.2791,0.3582 -18.9815,-1.0907 -22.5009,0.342 -3.5194,1.0745 -13.0015,11.4286 -17.5767,14.2939 -3.8713,-3.9397 -11.6337,-14.3136 -16.2089,-15.3882 -3.1675,-1.7907 -16.5279,-2.1039 -22.1589,-2.4621 0,-34.02511 0.7027,-16.5433 -14.4308,-40.89821 15.8374,-11.103 20.0304,-18.21 17.9187,-38.9834 27.8033,-3.5817 14.4644,6.7854 39.8041,-14.7042 z" id="path36" inkscape:connector-curvature="0" /></svg>