<?xml version="1.0" encoding="UTF-8" standalone="no"?>
<!-- Creator: CorelDRAW X7 -->

<svg xmlns:dc="http://purl.org/dc/elements/1.1/" xmlns:cc="http://creativecommons.org/ns#" xmlns:rdf="http://www.w3.org/1999/02/22-rdf-syntax-ns#" xmlns:svg="http://www.w3.org/2000/svg" xmlns="http://www.w3.org/2000/svg" xmlns:sodipodi="http://sodipodi.sourceforge.net/DTD/sodipodi-0.dtd" xmlns:inkscape="http://www.inkscape.org/namespaces/inkscape" xml:space="preserve" width="100" height="100" version="1.1" style="clip-rule:evenodd;fill-rule:evenodd;image-rendering:optimizeQuality;shape-rendering:geometricPrecision;text-rendering:geometricPrecision" viewBox="0 0 2822.2221 2822.2221" id="svg2" inkscape:version="0.91 r13725" sodipodi:docname="1.svg"><metadata id="metadata44"><rdf:RDF><cc:Work rdf:about=""><dc:format>image/svg+xml</dc:format><dc:type rdf:resource="http://purl.org/dc/dcmitype/StillImage" /><dc:title></dc:title></cc:Work></rdf:RDF></metadata><sodipodi:namedview pagecolor="#ffffff" bordercolor="#666666" borderopacity="1" objecttolerance="10" gridtolerance="10" guidetolerance="10" inkscape:pageopacity="0" inkscape:pageshadow="2" inkscape:window-width="640" inkscape:window-height="480" id="namedview42" showgrid="false" inkscape:zoom="5.49" inkscape:cx="50" inkscape:cy="50" inkscape:current-layer="svg2" units="px" fit-margin-top="0" fit-margin-left="0" fit-margin-right="0" fit-margin-bottom="0" /><defs id="defs4"><style type="text/css" id="style6"><![CDATA[
    .fil3 {fill:#FEFEFE}
    .fil1 {fill:#96989A}
    .fil2 {fill:#EC268F}
    .fil0 {fill:black}
   ]]></style></defs><path inkscape:connector-curvature="0" id="path10" d="m 2822.2221,2822.2221 0,-175.8548 c -4.4236,-13.3803 -8.8471,-48.9335 -12.902,-66.519 -8.4785,-17.5855 -12.902,-39.7585 -21.3805,-57.3439 -12.902,-30.9658 -42.7609,-75.3118 -59.7179,-97.4848 -21.3804,-26.7605 -51.2394,-53.1387 -81.0983,-75.3117 -16.9569,-8.7927 -34.2825,-17.5855 -51.2394,-26.3782 -12.902,-9.175 -33.9138,-13.3803 -51.2394,-22.173 47.1845,-35.5533 89.5768,-70.7242 123.8593,-115.0702 303.0129,-411.7296 16.9569,-960.3201 -443.8291,-960.3201 -452.3075,0 -750.8969,539.7978 -439.4055,960.3201 33.9138,44.346 72.6199,79.5169 119.4357,115.0702 -16.9569,8.7927 -42.7609,17.5855 -59.7179,26.3782 -132.3377,61.9315 -217.4909,203.7622 -217.4909,362.7961 l 0,131.8911 1194.7259,0 z" class="fil0" style="stroke:white;stroke-width:28.22222084" /><path style="fill:#96989a" inkscape:connector-curvature="0" id="path12" d="m -1.2e-6,2637.1923 0,185.0298 1194.7259011999999,0 0,-131.8911 c 0,-115.0702 -33.9138,-181.2069 -85.1532,-251.9311 -68.1963,-102.0722 -166.62023,-119.6577 -192.05562,-137.2432 l 64.14141,-57.7262 C 1352.8677,1894.0146 1122.4747,1225.7664 597.54728,1225.7664 c -422.4486,0 -674.222072,446.9006 -524.927408,809.6966 46.815858,128.4505 119.435728,199.1747 204.957618,265.6937 -29.85894,17.5855 -47.18449,12.998 -102.47881,53.1387 C 17.325552,2455.9854 17.325552,2606.2265 -1.2e-6,2637.1923 Z" class="fil1" /><path style="fill:#ec268f" inkscape:connector-curvature="0" id="path14" d="m 2177.8589,1105.7264 c 4.4236,-128.06814 -18.4314,-151.7703 119.0672,-151.7703 123.4906,0 127.9141,-9.55733 127.9141,-142.21301 0,-185.41211 0,-370.44193 0,-555.47176 0,-113.92332 -86.9964,-90.22115 -178.4163,-90.22115 l -938.1603,0 c -45.71,0 -77.7807,-4.58752 -100.6357,33.25949 -22.8549,28.28969 -14.0078,465.25061 -14.0078,536.35711 0,261.10613 -27.2786,218.28932 325.1306,218.28932 91.4199,0 320.3384,-4.58752 402.5426,0 36.8629,0 64.1414,28.28968 91.7886,42.81681 l 164.777,108.95349 z" class="fil2" /><path style="fill:#96989a" inkscape:connector-curvature="0" id="path16" d="m 140.8162,1801.1174 0,30.9658 c 0,238.9331 213.43608,455.6932 443.82908,455.6932 l 25.80401,0 c 238.87146,0 443.46041,-216.7601 443.46041,-477.8662 0,-256.5186 -209.01249,-469.0736 -456.36242,-469.0736 -243.295,0 -456.73108,207.9674 -456.73108,460.2808 z" class="fil1" /><path inkscape:connector-curvature="0" id="path18" d="m 1768.3124,1809.9102 c 0,261.1061 204.5889,477.8662 443.4604,477.8662 l 25.804,0 c 234.4479,0 443.8291,-216.7601 443.8291,-460.2808 0,-132.6556 -47.1845,-261.1061 -136.7613,-349.4158 -294.1658,-296.6594 -776.3322,-70.7242 -776.3322,331.8304 z" class="fil0" /><path inkscape:connector-curvature="0" id="path20" d="m 1418.115,393.89682 c -64.1414,19.11465 -68.565,123.48065 36.4942,123.48065 86.9964,0 718.4576,4.58751 746.1047,-4.96981 59.3493,-14.14484 77.7807,-123.09836 -36.8628,-123.09836 -86.6278,0 -718.4576,-4.9698 -745.7361,4.58752 z" class="fil0" /><path inkscape:connector-curvature="0" id="path22" d="m 1418.115,621.74346 c -64.1414,19.11465 -68.565,123.48065 36.4942,123.48065 86.9964,0 718.4576,4.58751 746.1047,-4.96981 54.9257,-14.14484 77.7807,-123.48065 -36.8628,-123.48065 -86.6278,0 -713.6654,-4.58751 -745.7361,4.96981 z" class="fil0" /><path style="fill:#fefefe" inkscape:connector-curvature="0" id="path24" d="m 2019.7172,1916.1876 c -63.7728,22.173 -42.3923,84.1045 38.706,115.0702 102.1102,43.9637 225.9695,-40.1407 183.2085,-102.0722 -21.0118,-21.7907 -51.2394,-17.5855 -72.2512,0 -72.6199,61.9315 -106.9024,-26.3782 -149.6633,-12.998 z" class="fil3" /><path style="fill:#fefefe" inkscape:connector-curvature="0" id="path26" d="m 2275.9142,1677.2545 c -68.1963,26.3782 -25.4354,136.8609 42.761,105.8952 63.7727,-30.9658 29.8589,-136.8609 -42.761,-105.8952 z" class="fil3" /><path inkscape:connector-curvature="0" id="path28" d="m 503.54694,1677.2545 c -68.19633,30.9657 -25.43539,132.6557 42.76094,105.8952 64.14141,-21.7907 29.85893,-141.4485 -42.76094,-105.8952 z" class="fil0" /><path style="fill:#fefefe" inkscape:connector-curvature="0" id="path30" d="m 1913.1835,1677.2545 c -72.6199,26.3782 -34.2825,128.0682 34.2824,105.8952 72.2513,-17.5855 38.3374,-136.8609 -34.2824,-105.8952 z" class="fil3" /><path inkscape:connector-curvature="0" id="path32" d="m 870.70122,1677.2545 c -64.14141,21.7907 -29.85893,136.8609 42.39232,105.8952 59.71786,-26.3783 29.85893,-136.8609 -42.39232,-105.8952 z" class="fil0" /><path inkscape:connector-curvature="0" id="path34" d="m 648.78669,1926.8918 c -64.14141,22.173 -42.76094,84.1045 38.33739,115.0702 102.47881,44.346 225.96946,-39.7584 183.57714,-101.6899 -21.38047,-22.173 -51.2394,-17.5855 -72.61987,0 -72.61987,61.9315 -106.90235,-26.7605 -149.29466,-13.3803 z" class="fil0" /><path style="fill:#ec268f" inkscape:connector-curvature="0" id="path36" d="m 596.07277,942.10501 c -4.42355,-128.06816 18.43144,-152.15262 -119.0671,-152.15262 -123.49065,0 -127.9142,-9.17503 -127.9142,-142.213 0,-185.02983 0,-370.05965 0,-555.471762 0,-113.92332 86.9964,-90.2211525 178.41634,-90.2211525 l 938.16029,0 c 45.71,0 77.7807,-4.5875163 100.6357,33.2594925 22.855,28.671977 13.6392,465.250602 13.6392,536.357112 0,261.10613 27.6472,218.28931 -324.7619,218.28931 -91.42,0 -320.33846,-4.58752 -402.91132,0 -36.49425,0 -63.77278,28.67198 -91.41994,42.81682 l -164.77707,109.3358 z" class="fil2" /><path inkscape:connector-curvature="0" id="path38" d="m 1355.8167,229.89312 c 64.1414,19.11465 68.565,123.48064 -36.4942,123.48064 -86.9964,0 -718.82619,4.96981 -746.10472,-4.58752 -59.34923,-14.14484 -77.78067,-123.48064 36.49425,-123.48064 86.9964,0 718.82617,-4.58752 746.10467,4.58752 z" class="fil0" /><path inkscape:connector-curvature="0" id="path40" d="m 1355.8167,457.73976 c 64.1414,19.11465 68.565,123.48064 -36.4942,123.48064 -86.9964,0 -718.82619,4.96981 -746.10472,-4.58752 -54.92569,-14.52713 -77.78067,-123.48064 36.49425,-123.48064 86.9964,0 714.03397,-4.58752 746.10467,4.58752 z" class="fil0" /></svg>