<?xml version="1.0" encoding="UTF-8" standalone="no"?>
<!-- Creator: CorelDRAW X7 -->

<svg xmlns:dc="http://purl.org/dc/elements/1.1/" xmlns:cc="http://creativecommons.org/ns#" xmlns:rdf="http://www.w3.org/1999/02/22-rdf-syntax-ns#" xmlns:svg="http://www.w3.org/2000/svg" xmlns="http://www.w3.org/2000/svg" xmlns:sodipodi="http://sodipodi.sourceforge.net/DTD/sodipodi-0.dtd" xmlns:inkscape="http://www.inkscape.org/namespaces/inkscape" xml:space="preserve" width="28.222221mm" height="28.222223mm" version="1.1" style="clip-rule:evenodd;fill-rule:evenodd;image-rendering:optimizeQuality;shape-rendering:geometricPrecision;text-rendering:geometricPrecision" viewBox="0 0 2822.2221 2822.2223" id="svg4172" inkscape:version="0.91 r13725" sodipodi:docname="2.svg"><metadata id="metadata4192"><rdf:RDF><cc:Work rdf:about=""><dc:format>image/svg+xml</dc:format><dc:type rdf:resource="http://purl.org/dc/dcmitype/StillImage" /><dc:title></dc:title></cc:Work></rdf:RDF></metadata><sodipodi:namedview pagecolor="#ffffff" bordercolor="#666666" borderopacity="1" objecttolerance="10" gridtolerance="10" guidetolerance="10" inkscape:pageopacity="0" inkscape:pageshadow="2" inkscape:window-width="640" inkscape:window-height="480" id="namedview4190" showgrid="false" inkscape:zoom="5.4899998" inkscape:cx="41.124232" inkscape:cy="50.000002" inkscape:current-layer="svg4172" fit-margin-top="0" fit-margin-left="0" fit-margin-right="0" fit-margin-bottom="0" /><defs id="defs4174"><style type="text/css" id="style4176"><![CDATA[
    .fil0 {fill:#A9ABAE}
    .fil1 {fill:#373435}
    .fil3 {fill:#EC268F}
    .fil2 {fill:white}
   ]]></style></defs><path style="color:black;clip-rule:nonzero;solid-color:black;solid-opacity:1;fill:#e6e6e6;stroke-width:28.22222519;stroke-linecap:square;stroke-linejoin:round;stroke-dashoffset:6.09000015;shape-rendering:auto" d="M -1.0765924e-4,1411.1114 A 1411.1112,1411.1113 0 0 0 1411.1111,2822.2227 1411.1112,1411.1113 0 0 0 2822.2223,1411.1114 1411.1112,1411.1113 0 0 0 1411.1111,2.3557027e-5 1411.1112,1411.1113 0 0 0 -1.0765924e-4,1411.1114 Z" id="path7072" inkscape:connector-curvature="0" /><path style="color:black;solid-color:black;solid-opacity:1;fill:#373435;stroke-width:28.22222519;stroke-linecap:square;stroke-linejoin:round;stroke-dashoffset:6.09000015" d="m 1411.1111,-1.0765925e-4 0,2822.22270765925 A 1411.1112,1411.1115 0 0 1 -10e-5,1411.1112 1411.1112,1411.1115 0 0 1 1411.1111,-1.0765925e-4 Z" id="path7072-7" inkscape:connector-curvature="0" /><path style="fill:#ec268f" d="M 2142.7731,739.24379 1116.7244,1736.5653 677.30571,1295.7628 C 530.26769,1149.0395 330.13498,1403.1687 470.29308,1557.2505 l 499.39819,498.6923 c 89.35043,82.8952 217.02433,96.0216 337.83653,-14.1799 0,0 671.8598,-705.4754 1055.1562,-1084.66127 120.8279,-137.17849 -83.0907,-341.72042 -219.9109,-217.85784 z" id="path4186" inkscape:connector-curvature="0" sodipodi:nodetypes="cccccccc" /></svg>