<?xml version="1.0" encoding="UTF-8" standalone="no"?>
<!-- Creator: CorelDRAW X7 -->

<svg xmlns:dc="http://purl.org/dc/elements/1.1/" xmlns:cc="http://creativecommons.org/ns#" xmlns:rdf="http://www.w3.org/1999/02/22-rdf-syntax-ns#" xmlns:svg="http://www.w3.org/2000/svg" xmlns="http://www.w3.org/2000/svg" xmlns:sodipodi="http://sodipodi.sourceforge.net/DTD/sodipodi-0.dtd" xmlns:inkscape="http://www.inkscape.org/namespaces/inkscape" xml:space="preserve" width="100" height="100" version="1.1" style="clip-rule:evenodd;fill-rule:evenodd;image-rendering:optimizeQuality;shape-rendering:geometricPrecision;text-rendering:geometricPrecision" viewBox="0 0 2822.2223 2822.2223" id="svg4734" inkscape:version="0.91 r13725" sodipodi:docname="3.svg"><metadata id="metadata4778"><rdf:RDF><cc:Work rdf:about=""><dc:format>image/svg+xml</dc:format><dc:type rdf:resource="http://purl.org/dc/dcmitype/StillImage" /><dc:title></dc:title></cc:Work></rdf:RDF></metadata><sodipodi:namedview pagecolor="#ffffff" bordercolor="#666666" borderopacity="1" objecttolerance="10" gridtolerance="10" guidetolerance="10" inkscape:pageopacity="0" inkscape:pageshadow="2" inkscape:window-width="640" inkscape:window-height="480" id="namedview4776" showgrid="false" inkscape:zoom="5.49" inkscape:cx="50" inkscape:cy="50" inkscape:current-layer="svg4734" fit-margin-top="0" fit-margin-left="0" fit-margin-right="0" fit-margin-bottom="0" units="px" /><defs id="defs4736"><style type="text/css" id="style4738"><![CDATA[
    .str0 {stroke:#727376;stroke-width:20}
    .fil5 {fill:#FEFEFE}
    .fil2 {fill:#FEFEFE}
    .fil7 {fill:#727376}
    .fil0 {fill:#EC268F}
    .fil1 {fill:#A63364}
    .fil6 {fill:#959CB5}
    .fil8 {fill:#AFB9D2}
    .fil3 {fill:#E7E5E5}
    .fil4 {fill:white}
   ]]></style></defs><path style="fill:#ec268f" inkscape:connector-curvature="0" id="path4742" d="m 0,1791.3844 c 82.617743,65.0282 108.06401,59.6563 241.24381,76.0547 -6.60942,113.9406 -76.3388,92.1703 -25.44627,162.5704 31.72522,38.1687 88.89669,54.2844 152.01665,81.4266 -38.00416,16.3984 -114.01248,38.1687 -56.84101,113.9406 50.56206,65.3109 145.7377,32.5141 183.74186,32.5141 50.89253,70.6828 -12.55789,76.0546 -6.27895,206.3937 34.44324,319.9161 343.88919,159.9682 583.61171,113.9406 l 56.841,243.997 456.7109,0 -6.2789,-1155.5221 0,-97.825 0,-86.7984 0,-5.3719 0,-43.5406 0,-81.1438 C 1414.4158,1216.3093 1103.773,1124.139 1154.3351,820.203 1198.6182,662.7218 1357.2443,538.0373 1579.3208,538.0373 l 0,-76.0546 -38.0042,-5.3719 c -6.2789,-27.1422 -6.2789,-59.6563 -6.2789,-92.1704 l 0,-48.9125 c 0,-21.7702 -6.6095,-32.514 12.5579,-37.8859 l 31.7252,0 0,-276.7938 c -152.3472,0 -361.5353,32.5141 -500.994,70.6828 C 963.98382,104.0451 862.52923,147.3029 773.96301,196.2154 653.34111,261.2436 615.33695,299.4123 532.7192,375.1842 469.59925,434.8405 406.14882,516.267 355.25629,603.0655 177.79338,912.3734 361.53524,1004.5437 317.25213,1254.1953 283.44736,1433.0559 45.760434,1634.6531 0,1791.3844 Z" class="fil0" sodipodi:nodetypes="ccccccccccccccccccccssccccccccc" /><path style="fill:#a63364" inkscape:connector-curvature="0" id="path4744" d="m 1578.9903,2821.3739 742.2378,0 c 0,-92.1703 -31.7252,-417.8766 -44.6136,-520.7907 0,-43.5406 -6.2789,-86.7985 -6.2789,-135.711 -12.5579,-86.7984 0,-54.2843 114.0124,-173.5969 450.432,-477.5328 412.4278,-851.8689 437.8741,-906.1532 l 0,-86.7985 c -12.8884,-27.1422 -6.6094,-76.0547 -12.8884,-108.5687 -18.8368,-92.1704 -50.562,-206.111 -101.4546,-287.5376 C 2574.6993,379.7079 2397.2364,217.1375 2130.8768,113.9407 1959.6929,43.2579 1769.3416,0 1578.9903,0 l 0,2821.3739 z" class="fil1" /><path style="fill:#fefefe" d="m 1579.3182,538.0372 c -222.0764,0 -380.6976,124.6774 -424.9807,282.1587 -50.562,200.739 88.9033,368.9769 234.6411,423.2613 l 0,189.711 190.3396,0 202.9088,0 0,-195.0876 C 1921.6857,1178.1415 2042.3072,1010.202 1985.1357,814.8348 1947.1316,668.38 1788.5064,538.0372 1579.3182,538.0372 Z" id="path4746" inkscape:connector-curvature="0" /><path style="fill:#e7e5e5" inkscape:connector-curvature="0" id="path4750" d="m 1902.8518,1243.4515 c 6.279,21.7703 133.1798,130.0563 145.7377,141.0828 12.5579,-11.0265 38.0042,-32.514 50.8926,-43.5406 -12.8884,-21.7703 -44.6136,-48.9124 -63.4505,-70.4 l -76.3387,-65.3109 -56.8411,38.1687 z" class="fil3" /><path style="fill:#e7e5e5" inkscape:connector-curvature="0" id="path4752" d="m 1921.6887,565.1795 50.8925,48.9125 c 18.8369,-11.0265 145.7377,-113.9406 158.6261,-124.9671 -19.1673,-16.1157 -38.3346,-37.886 -57.1715,-48.6298 -19.1673,21.4876 -133.1798,113.9406 -152.3471,124.6844 z" class="fil3" /><polygon style="fill:white" id="polygon4754" points="2823,3356 2900,3356 3476,3337 3476,3107 2823,3126 " class="fil4" transform="matrix(0.33047097,0,0,0.28273112,-102.11553,1.4137)" /><polygon style="fill:#e7e5e5" id="polygon4756" points="6662,3107 6642,3337 7295,3356 7314,3126 " class="fil3" transform="matrix(0.33047097,0,0,0.28273112,-102.11553,1.4137)" /><path style="fill:white" inkscape:connector-curvature="0" id="path4758" d="m 1040.3226,1340.9937 44.2831,27.1422 c 12.5579,11.0265 0,5.3719 12.5579,11.0265 l 139.7892,-135.7109 c -19.1673,-16.3984 -31.7252,-27.1422 -57.1714,-38.1687 -25.4463,32.7968 -120.6219,108.5687 -139.4588,135.7109 z" class="fil4" /><polygon style="fill:white" id="polygon4760" points="3533,1572 3380,1725 3841,2167 3994,2013 " class="fil4" transform="matrix(0.33047097,0,0,0.28273112,-102.11553,1.4137)" /><polygon style="fill:#e7e5e5" id="polygon4762" points="5079,5241 5699,5241 5699,5011 5079,5011 " class="fil3" transform="matrix(0.33047097,0,0,0.28273112,-102.11553,1.4137)" /><path style="fill:#e7e5e5" inkscape:connector-curvature="0" id="path4764" d="m 1579.3208,461.9827 38.0041,0 0,-184.3407 -38.0041,0 0,173.5969 -31.7252,0 0,-173.5969 c -19.1674,5.3719 -12.5579,16.1157 -12.5579,37.8859 0,16.3985 0,32.5141 0,48.9125 0,32.5141 0,65.0282 6.2789,92.1704 l 38.0042,5.3719 z" class="fil3" /><polygon style="fill:white" id="polygon4766" points="5088,1591 5088,977 4992,977 4992,1591 " class="fil4" transform="matrix(0.33047097,0,0,0.28273112,-102.11553,1.4137)" /><polygon style="fill:#fefefe" id="polygon4768" points="4509,5241 5079,5241 5079,5011 4509,5011 " class="fil5" transform="matrix(0.33047097,0,0,0.28273112,-102.11553,1.4137)" /><path style="fill:#959cb5" inkscape:connector-curvature="0" id="path4770" d="m 1490.7545,1625.4212 163.9136,0 c 34.369,0 54.8582,-35.0586 58.1629,-52.5879 6.9399,-17.5294 10.2446,-90.7567 6.9399,-111.3961 l -287.1792,0 c -6.9399,17.8121 -3.6352,93.8667 3.3047,108.286 6.9399,23.4667 20.4892,55.698 54.8581,55.698 z" class="fil6" /><path style="fill:#727376;stroke:#727376;stroke-width:6.11340952" inkscape:connector-curvature="0" id="path4772" d="m 1387.9781,1460.3063 393.2604,0 0,12.7229 0,65.8763 c 0,7.0683 -7.6008,12.7229 -16.854,12.7229 l -359.5524,0 c -9.2532,0 -16.854,-5.6546 -16.854,-12.7229 l 0,-65.8763 0,-12.7229 z" class="fil7 str0" /><path style="fill:#afb9d2" inkscape:connector-curvature="0" id="path4774" d="m 1358.5662,1460.0235 0,-18.0948 c 10.575,-13.571 10.575,-20.6393 37.3432,-22.9012 l 374.7541,0 c 29.4119,2.2619 26.7681,9.3302 37.3432,22.9012 l 0,15.833 c -16.1931,20.6394 -2.6438,11.3092 -29.4119,25.1631 l -393.591,0 c -7.9313,-4.5237 -10.575,-4.5237 -15.8626,-9.3302 -5.2875,-4.5237 -5.2875,-6.7855 -10.575,-13.5711 z" class="fil8" /></svg>