<?xml version="1.0" encoding="UTF-8" standalone="no"?>
<!-- Creator: CorelDRAW X7 -->

<svg xmlns:dc="http://purl.org/dc/elements/1.1/" xmlns:cc="http://creativecommons.org/ns#" xmlns:rdf="http://www.w3.org/1999/02/22-rdf-syntax-ns#" xmlns:svg="http://www.w3.org/2000/svg" xmlns="http://www.w3.org/2000/svg" xmlns:sodipodi="http://sodipodi.sourceforge.net/DTD/sodipodi-0.dtd" xmlns:inkscape="http://www.inkscape.org/namespaces/inkscape" xml:space="preserve" width="28.222168mm" height="28.222254mm" version="1.1" style="clip-rule:evenodd;fill-rule:evenodd;image-rendering:optimizeQuality;shape-rendering:geometricPrecision;text-rendering:geometricPrecision" viewBox="0 0 2822.2168 2822.2254" id="svg5320" inkscape:version="0.91 r13725" sodipodi:docname="4.svg"><metadata id="metadata5344"><rdf:RDF><cc:Work rdf:about=""><dc:format>image/svg+xml</dc:format><dc:type rdf:resource="http://purl.org/dc/dcmitype/StillImage" /><dc:title></dc:title></cc:Work></rdf:RDF></metadata><sodipodi:namedview pagecolor="#ffffff" bordercolor="#666666" borderopacity="1" objecttolerance="10" gridtolerance="10" guidetolerance="10" inkscape:pageopacity="0" inkscape:pageshadow="2" inkscape:window-width="640" inkscape:window-height="480" id="namedview5342" showgrid="false" inkscape:zoom="1" inkscape:cx="58.042971" inkscape:cy="48.797939" inkscape:current-layer="svg5320" inkscape:snap-bbox="false" inkscape:bbox-paths="true" inkscape:bbox-nodes="true" inkscape:snap-bbox-midpoints="true" inkscape:snap-bbox-edge-midpoints="true" inkscape:object-paths="true" inkscape:snap-intersection-paths="true" inkscape:object-nodes="true" inkscape:snap-smooth-nodes="true" inkscape:snap-midpoints="false" inkscape:snap-nodes="true" fit-margin-top="0" fit-margin-left="0" fit-margin-right="0" fit-margin-bottom="0" /><defs id="defs5322"><style type="text/css" id="style5324"><![CDATA[
    .fil0 {fill:#373435}
    .fil2 {fill:#00AFEF}
    .fil1 {fill:white}
   ]]></style></defs><path style="fill:white;stroke:#373435;stroke-width:132.26811218;stroke-linecap:round;stroke-linejoin:bevel" inkscape:connector-curvature="0" id="path5330-3" d="m 1147.4881,454.17854 c -15.6812,-151.0201 -204.61461,-110.0088 -198.4106,9.3848 8.34042,160.5089 2.66365,532.9404 17.59707,591.20206 14.93357,58.2618 79.03183,146.0695 77.71453,162.0253 -1.3177,15.9557 -115.82687,237.4837 -135.2347,267.8057 -4.21506,32.1799 -21.20298,81.823 -20.99531,93.9784 0,0 26.8735,258.9295 309.42361,250.9135 282.5499,-8.0156 300.694,-265.085 300.694,-265.085 22.0593,-95.9909 248.5237,-188.3985 316.3692,-255.6688 67.8455,-67.2703 395.3274,-566.22176 410.6685,-592.29986 75.2979,-127.9971 -74.9322,-208.324 -150.6732,-91.6811 -209.7644,311.6888 -196.0647,308.7598 -220.5207,293.8381 -24.4561,-14.9218 -28.2059,3.7134 303.7559,-514.9131 73.3058,-114.5259 -68.9201,-207.6945 -144.9137,-90.6631 -308.6761,475.3679 -282.0204,470.0962 -307.5376,454.2032 -25.5172,-15.8932 -28.3012,-0.7544 327.6507,-548.9277 73.3199,-112.9141 -83.3472,-207.631604 -157.592,-93.1519 -357.7856,551.6774 -343.2861,540.6079 -372.8096,522.3123 -29.524,-18.2957 -33.622,6.1536 260.226,-446.3784 70.367,-108.366404 -75.7294,-200.9577036 -152.5678,-78.4332 -281.8275,449.3954 -408.4472,666.6777 -431.6811,669.4986 -23.2339,2.8209 -21.5202,-245.0925 -31.1632,-337.9598 z" class="fil1" sodipodi:nodetypes="sszzcczczsczsszsszsszs" /><g transform="matrix(0.365466,0,0,0.35563108,2156.4416,-2880.61)" id="g7353-9" style="stroke:#00afef"><path id="path7223-0-2" style="color:black;solid-color:black;solid-opacity:1;fill:none;stroke-width:423.33325195;stroke-linecap:round;stroke-linejoin:round;stroke-dashoffset:6.09000015" d="m -83.64997,12538.794 c 0,0 79.987,720.969 846.6664,705.555 766.67937,-15.414 846.66657,-705.555 846.66657,-705.555 m -3386.666,0 c 0,0 79.987,720.969 846.66642,705.555 766.67941,-15.414 846.66661,-705.555 846.66661,-705.555 m -3386.66613,-0.01 c 0,0 79.9754,720.968 846.6549,705.554 766.6794,-15.414 846.6782,-705.543 846.6782,-705.543 m -3386.6661,0 c 0,0 79.987,720.969 846.6664,705.555 766.6794,-15.414 846.6666,-705.555 846.6666,-705.555" inkscape:connector-curvature="0" sodipodi:nodetypes="csccsccsccsc" /></g><g id="g7353" transform="matrix(0.365466,0,0,0.35563108,2013.9275,-2478.6075)" style="stroke:#373435"><path id="path7223-0" style="color:black;solid-color:black;solid-opacity:1;fill:none;stroke-width:423.33325195;stroke-linecap:round;stroke-linejoin:round;stroke-dashoffset:6.09000015" d="m 43.866264,12698.189 c 0,0 79.986996,720.969 846.666396,705.555 766.67934,-15.414 846.66654,-705.555 846.66654,-705.555 m -3386.666,0 c 0,0 79.987,720.969 846.66645,705.555 766.679414,-15.414 846.666614,-705.555 846.666614,-705.555 m -3386.666164,0 c 0,0 79.987,720.969 846.6665,705.555 766.6794,-15.414 846.6666,-705.555 846.6666,-705.555 m -3386.6661,0 c 0,0 79.987,720.969 846.6664,705.555 766.6794,-15.414 846.6666,-705.555 846.6666,-705.555" inkscape:connector-curvature="0" sodipodi:nodetypes="csccsccsccsc" /></g><g transform="matrix(0.36546598,0,0,0.35563105,1893.4497,-1963.2293)" id="g7353-9-6" style="stroke:#00afef"><path id="path7223-0-2-1" style="color:black;solid-color:black;solid-opacity:1;fill:none;stroke-width:423.33325195;stroke-linecap:round;stroke-linejoin:round;stroke-dashoffset:6.09000015" d="m 111.09769,12538.794 c 0,0 79.987,720.969 846.6664,705.555 766.67941,-15.414 846.66661,-705.555 846.66661,-705.555 m -3386.666,0 c 0,0 79.987,720.969 846.66638,705.555 766.679407,-15.414 846.66661,-705.555 846.66661,-705.555 m -3386.66609,-0.01 c 0,0 79.9754,720.968 846.6549,705.554 766.6794,-15.414 846.6782,-705.543 846.6782,-705.543 m -3386.6661,0 c 0,0 79.987,720.969 846.6664,705.555 766.6794,-15.414 846.6666,-705.555 846.6666,-705.555" inkscape:connector-curvature="0" sodipodi:nodetypes="csccsccsccsc" /></g></svg>