<?xml version="1.0" encoding="UTF-8" standalone="no"?>
<!-- Creator: CorelDRAW X7 -->

<svg xmlns:dc="http://purl.org/dc/elements/1.1/" xmlns:cc="http://creativecommons.org/ns#" xmlns:rdf="http://www.w3.org/1999/02/22-rdf-syntax-ns#" xmlns:svg="http://www.w3.org/2000/svg" xmlns="http://www.w3.org/2000/svg" xmlns:sodipodi="http://sodipodi.sourceforge.net/DTD/sodipodi-0.dtd" xmlns:inkscape="http://www.inkscape.org/namespaces/inkscape" xml:space="preserve" width="28.222221mm" height="28.222221mm" version="1.1" style="clip-rule:evenodd;fill-rule:evenodd;image-rendering:optimizeQuality;shape-rendering:geometricPrecision;text-rendering:geometricPrecision" viewBox="0 0 2822.2221 2822.2221" id="svg6476" inkscape:version="0.91 r13725" sodipodi:docname="6.svg"><metadata id="metadata6498"><rdf:RDF><cc:Work rdf:about=""><dc:format>image/svg+xml</dc:format><dc:type rdf:resource="http://purl.org/dc/dcmitype/StillImage" /><dc:title></dc:title></cc:Work></rdf:RDF></metadata><sodipodi:namedview pagecolor="#ffffff" bordercolor="#666666" borderopacity="1" objecttolerance="10" gridtolerance="10" guidetolerance="10" inkscape:pageopacity="0" inkscape:pageshadow="2" inkscape:window-width="640" inkscape:window-height="480" id="namedview6496" showgrid="false" inkscape:zoom="5.4900002" inkscape:cx="49.999998" inkscape:cy="49.999998" inkscape:current-layer="svg6476" fit-margin-top="0" fit-margin-left="0" fit-margin-right="0" fit-margin-bottom="0" /><defs id="defs6478"><style type="text/css" id="style6480"><![CDATA[
    .str0 {stroke:#FEFEFE;stroke-width:20}
    .fil0 {fill:#FEFEFE}
    .fil3 {fill:#F7ADAF}
    .fil2 {fill:#EC268F}
    .fil1 {fill:#6AC259}
   ]]></style></defs><g id="g7455" transform="matrix(0.35801371,0,0,0.36614194,-366.60604,-421.06323)"><path class="fil1" d="m 1024,5448 0,213 10,29 c 29,97 9,106 87,251 67,145 328,580 405,715 184,309 367,638 551,947 106,193 164,299 319,425 135,106 328,193 560,193 116,0 1410,0 1497,-10 l 0,-1777 -2019,0 822,-1430 550,319 -879,-1536 -1768,0 c 58,48 193,116 271,164 l 270,164 c -19,58 -58,107 -87,165 l -463,792 c -116,212 -87,290 -126,376 z" id="path6486" inkscape:connector-curvature="0" style="fill:#6ac259" /><path class="fil1" d="m 5844,8858 10,0 c 10,-144 -29,-540 0,-647 242,0 473,0 705,0 203,0 483,20 667,-29 183,-48 357,-174 435,-270 144,-184 830,-1420 1033,-1758 203,-338 145,-290 203,-474 l 10,0 0,-9 c 0,0 0,0 0,-10 l 0,-213 c -10,-38 -20,-86 -29,-125 -39,-155 -78,-193 -145,-329 L 8153,3990 c -38,-58 -77,-145 -116,-203 l -773,444 c -67,39 -734,416 -772,454 l 753,1304 c 39,78 77,145 126,223 38,58 96,154 125,222 l -1642,0 0,-638 c -29,20 -193,309 -222,377 -97,155 -667,1130 -667,1150 0,38 792,1362 879,1535 z" id="path6488" inkscape:connector-curvature="0" style="fill:#6ac259" /><path class="fil1" d="m 6115,1150 -2270,0 c -39,19 -116,19 -155,38 -58,10 -106,29 -154,49 -184,96 -290,222 -396,396 l -725,1265 c 48,39 1063,618 1150,676 77,39 347,203 396,213 l 1004,-1739 821,1420 c -96,58 -502,280 -550,329 l 1768,-10 c 19,0 879,-1526 888,-1526 -38,9 -483,280 -560,318 l -483,-830 c -145,-261 -222,-387 -473,-512 -126,-68 -174,-58 -242,-78 l -19,-9 z" id="path6490" inkscape:connector-curvature="0" style="fill:#6ac259" /><path class="fil2" d="m 4154,4705 0,59 c 4,8 4,38 6,50 26,157 103,293 213,402 l 218,201 c 6,4 8,6 14,14 l 120,105 c 6,4 8,10 14,14 l 220,201 2,0 c 14,-16 36,-30 44,-40 8,-6 8,-8 14,-14 l 372,-332 c 8,-6 10,-6 16,-12 6,-4 8,-8 14,-14 6,-4 10,-8 16,-14 6,-4 8,-6 14,-14 l 89,-77 c 52,-54 68,-64 117,-137 28,-40 58,-96 78,-148 16,-43 28,-87 36,-133 2,-12 4,-46 6,-52 l 0,-59 c -4,-8 -8,-86 -42,-171 -20,-50 -50,-98 -80,-131 -6,-6 -8,-10 -13,-16 l -24,-26 c -36,-34 -102,-70 -151,-86 -36,-12 -80,-16 -88,-18 l -58,0 c -8,4 -53,8 -67,12 -82,20 -143,56 -199,112 -46,45 -64,75 -94,139 -10,-16 -18,-36 -25,-52 -48,-79 -114,-145 -203,-181 -18,-8 -38,-14 -58,-20 -14,-2 -58,-8 -66,-10 l -63,0 c -20,8 -68,0 -159,52 -36,20 -74,52 -102,82 -53,57 -97,145 -115,226 -4,16 -12,82 -16,88 z" id="path6492" inkscape:connector-curvature="0" style="fill:#ec268f" /><path class="fil3" d="m 4315,4739 c 0,45 40,47 58,31 14,-15 6,-41 16,-81 21,-98 97,-173 195,-195 25,-6 67,-2 81,-16 18,-18 12,-56 -30,-56 -171,0 -320,148 -320,317 z" id="path6494" inkscape:connector-curvature="0" style="fill:#f7adaf" /></g></svg>